[
	{
		"id": "FR-GES",
		"name": "Grand Est",
		"chefLieu": "Metz"
	},
	{
		"id": "FR-NAQ",
		"name": "Nouvelle-Aquitaine",
		"chefLieu": "Bordeaux"
	},
	{
		"id": "FR-ARA",
		"name": "Auvergne-Rhône-Alpes",
		"chefLieu": "Lyon"
	},
	{
		"id": "FR-BFC",
		"name": "Bourgogne-Franche-Comté",
		"chefLieu": "Dijon"
	},
	{
		"id": "FR-BRE",
		"name": "Bretagne",
		"chefLieu": "Rennes"
	},
	{
		"id": "FR-CVL",
		"name": "Centre-Val de Loire",
		"chefLieu": "Orléans"
	},
	{
		"id": "FR-COR",
		"name": "Corse",
		"chefLieu": "Ajaccio"
	},
	{
		"id": "FR-IDF",
		"name": "Île-de-France",
		"chefLieu": "Paris"
	},
	{
		"id": "FR-OCC",
		"name": "Occitanie",
		"chefLieu": "Toulouse"
	},
	{
		"id": "FR-HDF",
		"name": "Hauts-de-France",
		"chefLieu": "Lille"
	},
	{
		"id": "FR-NOR",
		"name": "Normandie",
		"chefLieu": "Rouen"
	},
	{
		"id": "FR-PDL",
		"name": "Pays de la Loire",
		"chefLieu": "Nantes"
	},
	{
		"id": "FR-PAC",
		"name": "Provence-Alpes-Côte d'Azur",
		"chefLieu": "Marseille"
	}
]