[
  {
    "id": "01",
    "name": "Ain",
    "prefecture": "Bourg en bresse",
    "region": "Auvergne Rhône-Alpes"
  },
  {
    "id": "02",
    "name": "Aisne",
    "prefecture": "Laon",
    "region": "Hauts de France"
  },
  {
    "id": "03",
    "name": "Allier",
    "prefecture": "Moulins",
    "region": "Auvergne Rhône-Alpes"
  },
  {
    "id": "04",
    "name": "Alpes-de-Haute-Provence",
    "prefecture": "Digne les Bains",
    "region": "Provence Alpes Côte d'Azur"
  },
  {
    "id": "05",
    "name": "Hautes-Alpes",
    "prefecture": "Gap",
    "region": "Provence Alpes Côte d'Azur"
  },
  {
    "id": "06",
    "name": "Alpes-Maritimes",
    "prefecture": "Nice",
    "region": "Provence Alpes Côte d'Azur"
  },
  {
    "id": "07",
    "name": "Ardèche",
    "prefecture": "Privas",
    "region": "Auvergne Rhône-Alpes"
  },
  {
    "id": "08",
    "name": "Ardennes",
    "prefecture": "Charleville Mézières",
    "region": "Grand Est"
  },
  {
    "id": "09",
    "name": "Ariège",
    "prefecture": "Foix",
    "region": "Occitanie"
  },
  {
    "id": "10",
    "name": "Aube",
    "prefecture": "Troyes",
    "region": "Grand Est"
  },
  {
    "id": "11",
    "name": "Aude",
    "prefecture": "Carcassonne",
    "region": "Occitanie"
  },
  {
    "id": "12",
    "name": "Aveyron",
    "prefecture": "Rodez",
    "region": "Occitanie"
  },
  {
    "id": "13",
    "name": "Bouches-du-Rhône",
    "prefecture": "Marseille",
    "region": "Provence Alpes Côte d'Azur"
  },
  {
    "id": "14",
    "name": "Calvados",
    "prefecture": "Caen",
    "region": "Normandie"
  },
  {
    "id": "15",
    "name": "Cantal",
    "prefecture": "Aurillac",
    "region": "Auvergne Rhône-Alpes"
  },
  {
    "id": "16",
    "name": "Charente",
    "prefecture": "Angoulême",
    "region": "Nouvelle Aquitaine"
  },
  {
    "id": "17",
    "name": "Charente-Maritime",
    "prefecture": "La Rochelle",
    "region": "Nouvelle Aquitaine"
  },
  {
    "id": "18",
    "name": "Cher",
    "prefecture": "Bourges",
    "region": "Centre Val de Loire"
  },
  {
    "id": "19",
    "name": "Corrèze",
    "prefecture": "Tulle",
    "region": "Nouvelle Aquitaine"
  },
  {
    "id": "21",
    "name": "Côte-d'Or",
    "prefecture": "Dijon",
    "region": "Bourgogne Franche-Comté"
  },
  {
    "id": "22",
    "name": "Côtes-d'Armor",
    "prefecture": "Saint Brieuc",
    "region": "Bretagne"
  },
  {
    "id": "23",
    "name": "Creuse",
    "prefecture": "Guéret",
    "region": "Nouvelle Aquitaine"
  },
  {
    "id": "24",
    "name": "Dordogne",
    "prefecture": "Périgueux",
    "region": "Nouvelle Aquitaine"
  },
  {
    "id": "25",
    "name": "Doubs",
    "prefecture": "Besançon",
    "region": "Bourgogne Franche-Comté"
  },
  {
    "id": "26",
    "name": "Drôme",
    "prefecture": "Valence",
    "region": "Auvergne Rhône-Alpes"
  },
  {
    "id": "27",
    "name": "Eure",
    "prefecture": "Evreux",
    "region": "Normandie"
  },
  {
    "id": "28",
    "name": "Eure-et-Loir",
    "prefecture": "Chartres",
    "region": "Centre Val de Loire"
  },
  {
    "id": "29",
    "name": "Finistère",
    "prefecture": "Quimper",
    "region": "Bretagne"
  },
  {
    "id": "2A",
    "name": "Corse-du-Sud",
    "prefecture": "Ajaccio",
    "region": "Corse"
  },
  {
    "id": "2B",
    "name": "Haute-Corse",
    "prefecture": "Bastia",
    "region": "Corse"
  },
  {
    "id": "30",
    "name": "Gard",
    "prefecture": "Nîmes",
    "region": "Occitanie"
  },
  {
    "id": "31",
    "name": "Haute-Garonne",
    "prefecture": "Toulouse",
    "region": "Occitanie"
  },
  {
    "id": "32",
    "name": "Gers",
    "prefecture": "Auch",
    "region": "Occitanie"
  },
  {
    "id": "33",
    "name": "Gironde",
    "prefecture": "Bordeaux",
    "region": "Nouvelle Aquitaine"
  },
  {
    "id": "34",
    "name": "Hérault",
    "prefecture": "Montpellier",
    "region": "Occitanie"
  },
  {
    "id": "35",
    "name": "Ille-et-Vilaine",
    "prefecture": "Rennes",
    "region": "Bretagne"
  },
  {
    "id": "36",
    "name": "Indre",
    "prefecture": "Châteauroux",
    "region": "Centre Val de Loire"
  },
  {
    "id": "37",
    "name": "Indre-et-Loire",
    "prefecture": "Tours",
    "region": "Centre Val de Loire"
  },
  {
    "id": "38",
    "name": "Isère",
    "prefecture": "Grenoble",
    "region": "Auvergne Rhône-Alpes"
  },
  {
    "id": "39",
    "name": "Jura",
    "prefecture": "Lons le Saunier",
    "region": "Bourgogne Franche-Comté"
  },
  {
    "id": "40",
    "name": "Landes",
    "prefecture": "Mont de Marsan",
    "region": "Nouvelle Aquitaine"
  },
  {
    "id": "41",
    "name": "Loir-et-Cher",
    "prefecture": "Blois",
    "region": "Centre Val de Loire"
  },
  {
    "id": "42",
    "name": "Loire",
    "prefecture": "Saint Etienne",
    "region": "Auvergne Rhône-Alpes"
  },
  {
    "id": "43",
    "name": "Haute-Loire",
    "prefecture": "Le Puy en Velay",
    "region": "Auvergne Rhône-Alpes"
  },
  {
    "id": "44",
    "name": "Loire-Atlantique",
    "prefecture": "Nantes",
    "region": "Pays de la Loire"
  },
  {
    "id": "45",
    "name": "Loiret",
    "prefecture": "Orleans",
    "region": "Centre Val de Loire"
  },
  {
    "id": "46",
    "name": "Lot",
    "prefecture": "Cahors",
    "region": "Occitanie"
  },
  {
    "id": "47",
    "name": "Lot-et-Garonne",
    "prefecture": "Agen",
    "region": "Nouvelle Aquitaine"
  },
  {
    "id": "48",
    "name": "Lozère",
    "prefecture": "Mende",
    "region": "Occitanie"
  },
  {
    "id": "49",
    "name": "Maine-et-Loire",
    "prefecture": "Angers",
    "region": "Pays de la Loire"
  },
  {
    "id": "50",
    "name": "Manche",
    "prefecture": "Saint Lô",
    "region": "Normandie"
  },
  {
    "id": "51",
    "name": "Marne",
    "prefecture": "Chalons en Champagne",
    "region": "Grand Est"
  },
  {
    "id": "52",
    "name": "Haute-Marne",
    "prefecture": "Chaumont",
    "region": "Grand Est"
  },
  {
    "id": "53",
    "name": "Mayenne",
    "prefecture": "Laval",
    "region": "Pays de la Loire"
  },
  {
    "id": "54",
    "name": "Meurthe-et-Moselle",
    "prefecture": "Nancy",
    "region": "Grand Est"
  },
  {
    "id": "55",
    "name": "Meuse",
    "prefecture": "Bar le Duc",
    "region": "Grand Est"
  },
  {
    "id": "56",
    "name": "Morbihan",
    "prefecture": "Vannes",
    "region": "Bretagne"
  },
  {
    "id": "57",
    "name": "Moselle",
    "prefecture": "Metz",
    "region": "Grand Est"
  },
  {
    "id": "58",
    "name": "Nièvre",
    "prefecture": "Nevers",
    "region": "Bourgogne Franche-Comté"
  },
  {
    "id": "59",
    "name": "Nord",
    "prefecture": "Lille",
    "region": "Hauts de France"
  },
  {
    "id": "60",
    "name": "Oise",
    "prefecture": "Beauvais",
    "region": "Hauts de France"
  },
  {
    "id": "61",
    "name": "Orne",
    "prefecture": "Alençon",
    "region": "Normandie"
  },
  {
    "id": "62",
    "name": "Pas-de-Calais",
    "prefecture": "Arras",
    "region": "Hauts de France"
  },
  {
    "id": "63",
    "name": "Puy-de-Dôme",
    "prefecture": "Clermont Ferrand",
    "region": "Auvergne Rhône-Alpes"
  },
  {
    "id": "64",
    "name": "Pyrénées-Atlantiques",
    "prefecture": "Pau",
    "region": "Nouvelle Aquitaine"
  },
  {
    "id": "65",
    "name": "Hautes-Pyrénées",
    "prefecture": "Tarbes",
    "region": "Occitanie"
  },
  {
    "id": "66",
    "name": "Pyrénées-Orientales",
    "prefecture": "Perpignan",
    "region": "Occitanie"
  },
  {
    "id": "67",
    "name": "Bas-Rhin",
    "prefecture": "Strasbourg",
    "region": "Grand Est"
  },
  {
    "id": "68",
    "name": "Haut-Rhin",
    "prefecture": "Colmar",
    "region": "Grand Est"
  },
  {
    "id": "69",
    "name": "Rhône",
    "prefecture": "Lyon",
    "region": "Auvergne Rhône-Alpes"
  },
  {
    "id": "70",
    "name": "Haute-Saône",
    "prefecture": "Vesoul",
    "region": "Bourgogne Franche-Comté"
  },
  {
    "id": "71",
    "name": "Saône-et-Loire",
    "prefecture": "Dijon",
    "region": "Bourgogne Franche-Comté"
  },
  {
    "id": "72",
    "name": "Sarthe",
    "prefecture": "Le Mans",
    "region": "Pays de la Loire"
  },
  {
    "id": "73",
    "name": "Savoie",
    "prefecture": "Chambery",
    "region": "Auvergne Rhône-Alpes"
  },
  {
    "id": "74",
    "name": "Haute-Savoie",
    "prefecture": "Annecy",
    "region": "Auvergne Rhône-Alpes"
  },
  {
    "id": "75",
    "name": "Paris",
    "prefecture": "Paris",
    "region": "Ile de France"
  },
  {
    "id": "76",
    "name": "Seine-Maritime",
    "prefecture": "Rouen",
    "region": "Normandie"
  },
  {
    "id": "77",
    "name": "Seine-et-Marne",
    "prefecture": "Melun",
    "region": "Ile de France"
  },
  {
    "id": "78",
    "name": "Yvelines",
    "prefecture": "Versailles",
    "region": "Ile de France"
  },
  {
    "id": "79",
    "name": "Deux-Sèvres",
    "prefecture": "Niort",
    "region": "Nouvelle Aquitaine"
  },
  {
    "id": "80",
    "name": "Somme",
    "prefecture": "Amiens",
    "region": "Hauts de France"
  },
  {
    "id": "81",
    "name": "Tarn",
    "prefecture": "Albi",
    "region": "Occitanie"
  },
  {
    "id": "82",
    "name": "Tarn-et-Garonne",
    "prefecture": "Montauban",
    "region": "Occitanie"
  },
  {
    "id": "83",
    "name": "Var",
    "prefecture": "Toulon",
    "region": "Provence Alpes Côte d'Azur"
  },
  {
    "id": "84",
    "name": "Vaucluse",
    "prefecture": "Avignon",
    "region": "Provence Alpes Côte d'Azur"
  },
  {
    "id": "85",
    "name": "Vendée",
    "prefecture": "La Roche sur Yon",
    "region": "Pays de la Loire"
  },
  {
    "id": "86",
    "name": "Vienne",
    "prefecture": "Poitiers",
    "region": "Nouvelle Aquitaine"
  },
  {
    "id": "87",
    "name": "Haute-Vienne",
    "prefecture": "Limoges",
    "region": "Nouvelle Aquitaine"
  },
  {
    "id": "88",
    "name": "Vosges",
    "prefecture": "Epinal",
    "region": "Grand Est"
  },
  {
    "id": "89",
    "name": "Yonne",
    "prefecture": "Auxerre",
    "region": "Bourgogne Franche-Comté"
  },
  {
    "id": "90",
    "name": "Territoire de Belfort",
    "prefecture": "Belfort",
    "region": "Bourgogne Franche-Comté"
  },
  {
    "id": "91",
    "name": "Essonne",
    "prefecture": "Evry Courcouronnes",
    "region": "Ile de France"
  },
  {
    "id": "92",
    "name": "Hauts-de-Seine",
    "prefecture": "Nanterre",
    "region": "Ile de France"
  },
  {
    "id": "93",
    "name": "Seine-Saint-Denis",
    "prefecture": "Bobigny",
    "region": "Ile de France"
  },
  {
    "id": "94",
    "name": "Val-de-Marne",
    "prefecture": "Créteil",
    "region": "Ile de France"
  },
  {
    "id": "95",
    "name": "Val-d'Oise",
    "prefecture": "Cergy",
    "region": "Ile de France"
  }
]